<?xml version='1.0' encoding='UTF-8'?>
<!-- Created with Inkscape (http://www.inkscape.org/) and export_objects.py -->
<svg xmlns:cc="http://creativecommons.org/ns#" xmlns:dc="http://purl.org/dc/elements/1.1/" xmlns:inkscape="http://www.inkscape.org/namespaces/inkscape" xmlns:rdf="http://www.w3.org/1999/02/22-rdf-syntax-ns#" xmlns:sodipodi="http://sodipodi.sourceforge.net/DTD/sodipodi-0.dtd" xmlns:xlink="http://www.w3.org/1999/xlink" xmlns="http://www.w3.org/2000/svg" version="1.1" id="svg1" width="16" height="16" viewBox="0 0 16 16">
<sodipodi:namedview 
    objecttolerance="10" 
    gridtolerance="10" 
    guidetolerance="10" 
    id="namedview" 
    showgrid="true" 
    inkscape:zoom="27.166187"
    inkscape:cx="7.4837792"
    inkscape:cy="8.9906751"
    inkscape:window-x="0" 
    inkscape:window-y="27"> 
    <inkscape:grid type="xygrid" id="grid"/>
  </sodipodi:namedview>
  <g inkscape:groupmode="layer"
     id="layercompo"
     inkscape:label="dialogselector">
        <path 
            id="rect22048" 
            d="M 0,0 H 16 V 16 H 0 Z" 
            style="opacity:0;fill:none" />
<path id="rect1045" d="m 14.259386,6.8086608 h -1.59722 V 6.3184655 q 0,-0.3431367 -0.06127,-0.4370908 -0.06128,-0.093954 -0.204248,-0.093954 -0.155229,0 -0.236928,0.1266338 -0.07761,0.1266338 -0.07761,0.3839863 0,0.3308818 0.08987,0.4983652 0.08578,0.1674834 0.48611,0.4044112 1.147874,0.6821885 1.446076,1.1192793 0.298202,0.4370908 0.298202,1.4093116 0,0.7066979 -0.167483,1.0416649 -0.163398,0.334967 -0.637254,0.563725 -0.473855,0.224672 -1.102939,0.224672 -0.690359,0 -1.180554,-0.261437 Q 10.828027,11.036595 10.676884,10.632184 10.52574,10.227773 10.52574,9.4843104 v -0.433006 h 1.59722 v 0.8047373 q 0,0.3717313 0.06536,0.4779403 0.06944,0.106209 0.241012,0.106209 0.171569,0 0.253268,-0.134804 0.08578,-0.134803 0.08578,-0.4003257 0,-0.5841494 -0.159313,-0.7638877 Q 12.445663,8.9614353 11.804324,8.5406843 11.162985,8.1158483 10.954652,7.9238552 10.746319,7.731862 10.607431,7.3928102 10.472627,7.0537585 10.472627,6.5267985 q 0,-0.7598027 0.191993,-1.1111094 0.196078,-0.3513066 0.629084,-0.5473848 0.433006,-0.2001631 1.04575,-0.2001631 0.669934,0 1.139704,0.216503 0.473856,0.2165029 0.624999,0.5473848 0.155229,0.3267968 0.155229,1.1151943 z m -4.3300588,0 H 8.3321074 V 6.3184655 q 0,-0.3431367 -0.061274,-0.4370908 -0.061274,-0.093954 -0.204248,-0.093954 -0.1552286,0 -0.2369278,0.1266338 -0.077614,0.1266338 -0.077614,0.3839863 0,0.3308818 0.089869,0.4983652 0.085784,0.1674834 0.4861104,0.4044112 1.147874,0.6821885 1.4460762,1.1192793 0.2982028,0.4370908 0.2982028,1.4093116 0,0.7066979 -0.1674841,1.0416649 Q 9.741419,11.10604 9.2675635,11.334798 8.793708,11.55947 8.164624,11.55947 q -0.6903584,0 -1.1805537,-0.261437 Q 6.4979599,11.036595 6.3468164,10.632184 6.1956728,10.227773 6.1956728,9.4843103 V 9.0513044 h 1.5972198 v 0.8047373 q 0,0.3717313 0.065359,0.4779403 0.069444,0.106209 0.2410127,0.106209 0.1715684,0 0.2532676,-0.134804 0.085784,-0.134803 0.085784,-0.4003257 0,-0.5841494 -0.1593135,-0.7638877 Q 8.1156045,8.9614353 7.4742656,8.5406843 6.8329267,8.1158483 6.6245937,7.9238552 6.4162607,7.731862 6.277372,7.3928102 6.1425683,7.0537585 6.1425683,6.5267985 q 0,-0.7598027 0.1919932,-1.1111094 0.1960781,-0.3513066 0.629084,-0.5473848 0.4330058,-0.2001631 1.04575,-0.2001631 0.6699336,0 1.1397041,0.216503 0.4738555,0.2165029 0.6249991,0.5473848 0.1552285,0.3267968 0.1552285,1.1151943 z M 5.6605428,7.6910124 H 3.9407742 v -1.151959 q 0,-0.5024502 -0.057189,-0.624999 -0.053104,-0.1266338 -0.2410127,-0.1266338 -0.212418,0 -0.2696074,0.1511435 -0.057189,0.1511436 -0.057189,0.6535938 v 3.0718907 q 0,0.4820254 0.057189,0.6290844 0.057189,0.147058 0.2573525,0.147058 0.1919932,0 0.2491826,-0.147058 0.061274,-0.147059 0.061274,-0.6903588 V 8.7735271 h 1.7197686 v 0.2573525 q 0,1.0253254 -0.1470586,1.4542464 -0.1429736,0.428921 -0.6413388,0.751633 -0.4942803,0.322711 -1.2214034,0.322711 -0.7557178,0 -1.2459131,-0.273692 Q 1.9146336,11.012086 1.7553201,10.53006 1.5960066,10.04395 1.5960066,9.0717292 V 7.1395427 q 0,-0.7148682 0.049019,-1.0702598 Q 1.6940457,5.7098063 1.9350584,5.3789245 2.180156,5.0480426 2.6090769,4.8601344 3.0420828,4.6681412 3.6017225,4.6681412 q 0.7598027,0 1.254083,0.2941172 0.4942803,0.2941172 0.6495088,0.735293 0.1552285,0.4370909 0.1552285,1.364377 z" style="opacity:1" />
</g>
</svg>
